"Variable";"Farm type";"Mean";"S.D.";"Min";"Q1 (25%)";"Median";"Q3 (75%)";"Max"
"UAA (ha)";"Livestock, cattle";26.4444444444444;17.8176822085016;4.14;16.235;23.47;32.5;114.86
"UAA (ha)";"Livestock, other";16.1959259259259;10.3433026488936;2.65;8.895;14.74;21.11;49.76
"UAA (ha)";"Mixed";29.3375362318841;21.4462060545612;5.82;15.77;24.11;33.66;128.66
"UAA (ha)";"Plant production";18.2726923076923;15.845662260112;1.16;10.0575;14.075;22.0075;62.86
"Arable land (ha)";"Livestock, cattle";2.05730158730159;9.17007320587608;0;0;0;0;70.19
"Arable land (ha)";"Livestock, other";0.67;1.60717382143553;0;0;0;0.435;7.25
"Arable land (ha)";"Mixed";11.2611594202899;10.9323539707539;0;3.5;8.37;12.84;54.42
"Arable land (ha)";"Plant production";9.73923076923077;11.9470330787445;0;1.02;7.63;11.88;46.92
"Permanent grassland (ha)";"Livestock, cattle";22.3018095238095;12.8535196822193;1.77;13.01;21.07;28.53;61.83
"Permanent grassland (ha)";"Livestock, other";14.1211111111111;9.49037785311374;2.36;8.06;12.78;16.975;40.92
"Permanent grassland (ha)";"Mixed";10.4878260869565;9.10259770123265;1.33;4.28;7.44;14.4;55.82
"Permanent grassland (ha)";"Plant production";5.03665384615385;8.0085252522162;0;1.2625;2.285;4.3025;39.74
"Temporary grassland (ha)";"Livestock, cattle";1.94587301587302;4.93031656214586;0;0;0;0;29.58
"Temporary grassland (ha)";"Livestock, other";1.03148148148148;2.01855947055873;0;0;0;0.915;7.82
"Temporary grassland (ha)";"Mixed";7.06384057971014;6.02807159590759;0;2.92;5.82;9.19;29.4
"Temporary grassland (ha)";"Plant production";2.36138461538462;2.86565096376964;0;0;1.625;2.6525;11.53
"Permanent crops (ha)";"Livestock, cattle";0.0519047619047619;0.226543858481461;0;0;0;0;1.4
"Permanent crops (ha)";"Livestock, other";0.118888888888889;0.333574271897272;0;0;0;0;1.37
"Permanent crops (ha)";"Mixed";0.222463768115942;0.61276472261839;0;0;0;0.15;4.17
"Permanent crops (ha)";"Plant production";0.761153846153846;1.48571417688081;0;0;0;0.6725;5.15
"Woodland (ha)";"Livestock, cattle";2.65079365079365;3.62521870378624;0;0.5;1.5;3.37;18
"Woodland (ha)";"Livestock, other";2.30407407407407;3.09788545656457;0;0.26;1.11;3.125;11.75
"Woodland (ha)";"Mixed";2.90884057971014;3.47624481987976;0;0.24;1.9;4;16.78
"Woodland (ha)";"Plant production";0.652692307692308;1.02966618937327;0;0;0.075;0.955;3.85
"Hedges (ha)";"Livestock, cattle";0.298253968253968;1.07238434925372;0;0;0.05;0.195;8.3
"Hedges (ha)";"Livestock, other";0.104074074074074;0.194901538440849;0;0;0;0.05;0.6
"Hedges (ha)";"Mixed";0.289855072463768;0.47366994202846;0;0;0.12;0.36;3
"Hedges (ha)";"Plant production";0.278076923076923;0.797280473764505;0;0;0;0.1275;4
"Livestock Units (LU)";"Livestock, cattle";37.6838846031746;19.4413305636395;3.48801;24.633265;35.92931;51.780575;81.74889
"Livestock Units (LU)";"Livestock, other";29.9602577777778;25.7020317908964;2.856;8.765;20;48.33141;89.09062
"Livestock Units (LU)";"Mixed";50.7392756521739;47.9269492274546;0;20;37.42288;60.7485;287
"Livestock Units (LU)";"Plant production";3.71057384615385;6.73442979299841;0;0;0.04;5.404945;25
"Water use (l/ha)";"Livestock, cattle";22.9547209074948;13.6608573166821;1.94080543425522;13.0407642620637;20.3873598369011;30.4831644284469;76.6936514699617
"Water use (l/ha)";"Livestock, other";72.3830609919814;105.349711532034;1.63934426229508;10.8423935425418;28.957528957529;78.6112933919549;364.888123924268
"Water use (l/ha)";"Mixed";34.3804009602958;25.3362751519434;0;18.0317040951123;29.7324083250743;44.3880786303107;137.864700224431
"Water use (l/ha)";"Plant production";137.952228892018;198.911011150812;0;6.11769962700868;60.8284023668639;190.948275862069;897.009966777409
"Permanent employees (FTE)";"Livestock, cattle";0.280952380952381;0.698814005172252;0;0;0;0;4
"Permanent employees (FTE)";"Livestock, other";0.407407407407407;0.97109213930499;0;0;0;0;4
"Permanent employees (FTE)";"Mixed";0.644927536231884;0.974307632279888;0;0;0;1;4
"Permanent employees (FTE)";"Plant production";5.32692307692308;14.8774610116729;0;0;1;4;75
"Seasonal employees (FTE)";"Livestock, cattle";1.03650793650794;1.81128199006026;0;0;0;2;10
"Seasonal employees (FTE)";"Livestock, other";1.25925925925926;2.37927902125174;0;0;0;1.5;10
"Seasonal employees (FTE)";"Mixed";1.31884057971015;3.98339477457279;0;0;0;1;25
"Seasonal employees (FTE)";"Plant production";7;16.4705798319306;0;0;3;5;85
"Energy use (kWh/ha)";"Livestock, cattle";1632.35886092511;783.550944599334;539.58587088916;1037.83706481993;1539.65785381026;2037.58811176344;4347.55677907777
"Energy use (kWh/ha)";"Livestock, other";2784.51176754398;3197.20659631016;631.153608883405;1315.40991902834;2071.94533762058;2713.81041353092;17410.2829133145
"Energy use (kWh/ha)";"Mixed";2105.79128652223;1026.87864719789;33.1877729257642;1368.58346498157;1995.02281211116;2640.05350897202;5570.06666317929
"Energy use (kWh/ha)";"Plant production";5344.2349238794;7503.95796729504;725.034965034965;1772.72894132443;2529.60922284882;3801.35255673243;33618.2223543401
