"SurveyID";"TypeDetailed";"ZoneDetailed";"Type";"Zone"
1;"Special crops";"c) Mountain zone I";"Plant production";"b) Hilly-Mountain I"
2;"Suckler cattle";"c) Mountain zone I";"Livestock, cattle";"b) Hilly-Mountain I"
3;"Horse/sheep/goat";"d) Mountain zone II";"Livestock, other";"c) Mountain II-IV"
4;"Dairy cattle";"e) Mountain zone III";"Livestock, cattle";"c) Mountain II-IV"
5;"Dairy cattle";"d) Mountain zone II";"Livestock, cattle";"c) Mountain II-IV"
6;"Dairy cattle";"f) Mountain zone IV";"Livestock, cattle";"c) Mountain II-IV"
7;"Horse/sheep/goat";"e) Mountain zone III";"Livestock, other";"c) Mountain II-IV"
8;"Mix finishing";"b) Hilly zone";"Mixed";"b) Hilly-Mountain I"
9;"Suckler cattle";"e) Mountain zone III";"Livestock, cattle";"c) Mountain II-IV"
10;"Special crops";"a) Lowland zone";"Plant production";"a) Lowland"
11;"Suckler cattle";"c) Mountain zone I";"Livestock, cattle";"b) Hilly-Mountain I"
12;"Mix other";"a) Lowland zone";"Mixed";"a) Lowland"
13;"Special crops";"a) Lowland zone";"Plant production";"a) Lowland"
14;"Special crops";"a) Lowland zone";"Plant production";"a) Lowland"
15;"Special crops";"f) Mountain zone IV";"Plant production";"c) Mountain II-IV"
16;"Mix other";"a) Lowland zone";"Mixed";"a) Lowland"
17;"Dairy cattle";"a) Lowland zone";"Livestock, cattle";"a) Lowland"
18;"Suckler cattle";"e) Mountain zone III";"Livestock, cattle";"c) Mountain II-IV"
19;"Mix other";"a) Lowland zone";"Mixed";"a) Lowland"
20;"Dairy cattle";"b) Hilly zone";"Livestock, cattle";"b) Hilly-Mountain I"
21;"Suckler cattle";"e) Mountain zone III";"Livestock, cattle";"c) Mountain II-IV"
22;"Dairy cattle";"f) Mountain zone IV";"Livestock, cattle";"c) Mountain II-IV"
23;"Horse/sheep/goat";"e) Mountain zone III";"Livestock, other";"c) Mountain II-IV"
24;"Suckler cattle";"f) Mountain zone IV";"Livestock, cattle";"c) Mountain II-IV"
25;"Suckler cattle";"e) Mountain zone III";"Livestock, cattle";"c) Mountain II-IV"
26;"Suckler cattle";"e) Mountain zone III";"Livestock, cattle";"c) Mountain II-IV"
27;"Special crops";"a) Lowland zone";"Plant production";"a) Lowland"
28;"Dairy cattle";"a) Lowland zone";"Livestock, cattle";"a) Lowland"
29;"Suckler cattle";"e) Mountain zone III";"Livestock, cattle";"c) Mountain II-IV"
30;"Suckler cattle";"a) Lowland zone";"Livestock, cattle";"a) Lowland"
31;"Dairy cattle";"e) Mountain zone III";"Livestock, cattle";"c) Mountain II-IV"
32;"Suckler cattle";"e) Mountain zone III";"Livestock, cattle";"c) Mountain II-IV"
33;"Horse/sheep/goat";"e) Mountain zone III";"Livestock, other";"c) Mountain II-IV"
34;"Dairy cattle";"c) Mountain zone I";"Livestock, cattle";"b) Hilly-Mountain I"
35;"Mix sucklers";"a) Lowland zone";"Mixed";"a) Lowland"
36;"Mix finishing";"a) Lowland zone";"Mixed";"a) Lowland"
37;"Mix dairy/arable";"a) Lowland zone";"Mixed";"a) Lowland"
38;"Mix finishing";"c) Mountain zone I";"Mixed";"b) Hilly-Mountain I"
39;"Special crops";"a) Lowland zone";"Plant production";"a) Lowland"
40;"Suckler cattle";"c) Mountain zone I";"Livestock, cattle";"b) Hilly-Mountain I"
41;"Special crops";"a) Lowland zone";"Plant production";"a) Lowland"
42;"Suckler cattle";"c) Mountain zone I";"Livestock, cattle";"b) Hilly-Mountain I"
43;"Mix finishing";"b) Hilly zone";"Mixed";"b) Hilly-Mountain I"
44;"Suckler cattle";"a) Lowland zone";"Livestock, cattle";"a) Lowland"
45;"Mix dairy/arable";"a) Lowland zone";"Mixed";"a) Lowland"
46;"Mix finishing";"b) Hilly zone";"Mixed";"b) Hilly-Mountain I"
47;"Horse/sheep/goat";"a) Lowland zone";"Livestock, other";"a) Lowland"
48;"Mix other";"a) Lowland zone";"Mixed";"a) Lowland"
49;"Special crops";"a) Lowland zone";"Plant production";"a) Lowland"
50;"Special crops";"a) Lowland zone";"Plant production";"a) Lowland"
51;"Mix finishing";"a) Lowland zone";"Mixed";"a) Lowland"
52;"Arable crops";"a) Lowland zone";"Plant production";"a) Lowland"
53;"Suckler cattle";"a) Lowland zone";"Livestock, cattle";"a) Lowland"
54;"Mix finishing";"a) Lowland zone";"Mixed";"a) Lowland"
55;"Mix finishing";"b) Hilly zone";"Mixed";"b) Hilly-Mountain I"
56;"Mix finishing";"c) Mountain zone I";"Mixed";"b) Hilly-Mountain I"
57;"Mix other";"b) Hilly zone";"Mixed";"b) Hilly-Mountain I"
58;"Horse/sheep/goat";"d) Mountain zone II";"Livestock, other";"c) Mountain II-IV"
59;"Other cattle";"d) Mountain zone II";"Livestock, cattle";"c) Mountain II-IV"
60;"Mix other";"a) Lowland zone";"Mixed";"a) Lowland"
61;"Mix other";"a) Lowland zone";"Mixed";"a) Lowland"
62;"Mix finishing";"c) Mountain zone I";"Mixed";"b) Hilly-Mountain I"
63;"Mix other";"a) Lowland zone";"Mixed";"a) Lowland"
64;"Arable crops";"a) Lowland zone";"Plant production";"a) Lowland"
65;"Suckler cattle";"d) Mountain zone II";"Livestock, cattle";"c) Mountain II-IV"
66;"Special crops";"a) Lowland zone";"Plant production";"a) Lowland"
67;"Mix other";"a) Lowland zone";"Mixed";"a) Lowland"
68;"Mix other";"a) Lowland zone";"Mixed";"a) Lowland"
69;"Mix finishing";"a) Lowland zone";"Mixed";"a) Lowland"
70;"Mix finishing";"a) Lowland zone";"Mixed";"a) Lowland"
71;"Pig and poultry";"c) Mountain zone I";"Livestock, other";"b) Hilly-Mountain I"
72;"Suckler cattle";"e) Mountain zone III";"Livestock, cattle";"c) Mountain II-IV"
73;"Mix other";"a) Lowland zone";"Mixed";"a) Lowland"
74;"Arable crops";"a) Lowland zone";"Plant production";"a) Lowland"
75;"Dairy cattle";"e) Mountain zone III";"Livestock, cattle";"c) Mountain II-IV"
76;"Mix finishing";"a) Lowland zone";"Mixed";"a) Lowland"
77;"Special crops";"d) Mountain zone II";"Plant production";"c) Mountain II-IV"
78;"Horse/sheep/goat";"d) Mountain zone II";"Livestock, other";"c) Mountain II-IV"
79;"Mix dairy/arable";"c) Mountain zone I";"Mixed";"b) Hilly-Mountain I"
80;"Pig and poultry";"a) Lowland zone";"Livestock, other";"a) Lowland"
81;"Mix sucklers";"a) Lowland zone";"Mixed";"a) Lowland"
82;"Mix finishing";"a) Lowland zone";"Mixed";"a) Lowland"
83;"Arable crops";"a) Lowland zone";"Plant production";"a) Lowland"
84;"Mix finishing";"a) Lowland zone";"Mixed";"a) Lowland"
85;"Horse/sheep/goat";"c) Mountain zone I";"Livestock, other";"b) Hilly-Mountain I"
86;"Arable crops";"a) Lowland zone";"Plant production";"a) Lowland"
87;"Mix sucklers";"a) Lowland zone";"Mixed";"a) Lowland"
88;"Mix sucklers";"a) Lowland zone";"Mixed";"a) Lowland"
89;"Arable crops";"a) Lowland zone";"Plant production";"a) Lowland"
90;"Mix dairy/arable";"a) Lowland zone";"Mixed";"a) Lowland"
91;"Mix dairy/arable";"a) Lowland zone";"Mixed";"a) Lowland"
92;"Other cattle";"a) Lowland zone";"Livestock, cattle";"a) Lowland"
93;"Mix finishing";"a) Lowland zone";"Mixed";"a) Lowland"
94;"Other cattle";"d) Mountain zone II";"Livestock, cattle";"c) Mountain II-IV"
95;"Suckler cattle";"d) Mountain zone II";"Livestock, cattle";"c) Mountain II-IV"
96;"Mix dairy/arable";"a) Lowland zone";"Mixed";"a) Lowland"
97;"Mix dairy/arable";"a) Lowland zone";"Mixed";"a) Lowland"
98;"Mix dairy/arable";"a) Lowland zone";"Mixed";"a) Lowland"
99;"Mix dairy/arable";"a) Lowland zone";"Mixed";"a) Lowland"
100;"Mix finishing";"a) Lowland zone";"Mixed";"a) Lowland"
101;"Pig and poultry";"c) Mountain zone I";"Livestock, other";"b) Hilly-Mountain I"
102;"Mix finishing";"a) Lowland zone";"Mixed";"a) Lowland"
103;"Mix dairy/arable";"a) Lowland zone";"Mixed";"a) Lowland"
104;"Mix finishing";"a) Lowland zone";"Mixed";"a) Lowland"
105;"Mix other";"a) Lowland zone";"Mixed";"a) Lowland"
106;"Mix finishing";"a) Lowland zone";"Mixed";"a) Lowland"
107;"Mix sucklers";"a) Lowland zone";"Mixed";"a) Lowland"
108;"Mix dairy/arable";"b) Hilly zone";"Mixed";"b) Hilly-Mountain I"
109;"Mix sucklers";"b) Hilly zone";"Mixed";"b) Hilly-Mountain I"
110;"Mix sucklers";"b) Hilly zone";"Mixed";"b) Hilly-Mountain I"
111;"Arable crops";"a) Lowland zone";"Plant production";"a) Lowland"
112;"Pig and poultry";"a) Lowland zone";"Livestock, other";"a) Lowland"
113;"Pig and poultry";"d) Mountain zone II";"Livestock, other";"c) Mountain II-IV"
114;"Mix dairy/arable";"a) Lowland zone";"Mixed";"a) Lowland"
115;"Pig and poultry";"b) Hilly zone";"Livestock, other";"b) Hilly-Mountain I"
116;"Pig and poultry";"b) Hilly zone";"Livestock, other";"b) Hilly-Mountain I"
117;"Other cattle";"d) Mountain zone II";"Livestock, cattle";"c) Mountain II-IV"
118;"Pig and poultry";"b) Hilly zone";"Livestock, other";"b) Hilly-Mountain I"
119;"Arable crops";"a) Lowland zone";"Plant production";"a) Lowland"
120;"Mix finishing";"b) Hilly zone";"Mixed";"b) Hilly-Mountain I"
121;"Mix sucklers";"d) Mountain zone II";"Mixed";"c) Mountain II-IV"
122;"Pig and poultry";"b) Hilly zone";"Livestock, other";"b) Hilly-Mountain I"
123;"Mix sucklers";"a) Lowland zone";"Mixed";"a) Lowland"
124;"Mix sucklers";"a) Lowland zone";"Mixed";"a) Lowland"
125;"Other cattle";"e) Mountain zone III";"Livestock, cattle";"c) Mountain II-IV"
126;"Mix dairy/arable";"a) Lowland zone";"Mixed";"a) Lowland"
127;"Other cattle";"e) Mountain zone III";"Livestock, cattle";"c) Mountain II-IV"
128;"Other cattle";"f) Mountain zone IV";"Livestock, cattle";"c) Mountain II-IV"
129;"Other cattle";"f) Mountain zone IV";"Livestock, cattle";"c) Mountain II-IV"
130;"Other cattle";"c) Mountain zone I";"Livestock, cattle";"b) Hilly-Mountain I"
131;"Mix sucklers";"a) Lowland zone";"Mixed";"a) Lowland"
132;"Pig and poultry";"a) Lowland zone";"Livestock, other";"a) Lowland"
133;"Pig and poultry";"a) Lowland zone";"Livestock, other";"a) Lowland"
134;"Dairy cattle";"a) Lowland zone";"Livestock, cattle";"a) Lowland"
135;"Mix finishing";"d) Mountain zone II";"Mixed";"c) Mountain II-IV"
136;"Other cattle";"c) Mountain zone I";"Livestock, cattle";"b) Hilly-Mountain I"
137;"Mix sucklers";"a) Lowland zone";"Mixed";"a) Lowland"
138;"Mix sucklers";"a) Lowland zone";"Mixed";"a) Lowland"
139;"Special crops";"a) Lowland zone";"Plant production";"a) Lowland"
140;"Mix sucklers";"b) Hilly zone";"Mixed";"b) Hilly-Mountain I"
141;"Other cattle";"a) Lowland zone";"Livestock, cattle";"a) Lowland"
142;"Mix other";"d) Mountain zone II";"Mixed";"c) Mountain II-IV"
143;"Mix other";"c) Mountain zone I";"Mixed";"b) Hilly-Mountain I"
144;"Pig and poultry";"c) Mountain zone I";"Livestock, other";"b) Hilly-Mountain I"
145;"Dairy cattle";"a) Lowland zone";"Livestock, cattle";"a) Lowland"
146;"Dairy cattle";"f) Mountain zone IV";"Livestock, cattle";"c) Mountain II-IV"
147;"Other cattle";"b) Hilly zone";"Livestock, cattle";"b) Hilly-Mountain I"
148;"Mix dairy/arable";"a) Lowland zone";"Mixed";"a) Lowland"
149;"Special crops";"a) Lowland zone";"Plant production";"a) Lowland"
150;"Special crops";"a) Lowland zone";"Plant production";"a) Lowland"
151;"Special crops";"d) Mountain zone II";"Plant production";"c) Mountain II-IV"
152;"Suckler cattle";"b) Hilly zone";"Livestock, cattle";"b) Hilly-Mountain I"
153;"Suckler cattle";"f) Mountain zone IV";"Livestock, cattle";"c) Mountain II-IV"
154;"Special crops";"b) Hilly zone";"Plant production";"b) Hilly-Mountain I"
155;"Dairy cattle";"b) Hilly zone";"Livestock, cattle";"b) Hilly-Mountain I"
156;"Mix sucklers";"a) Lowland zone";"Mixed";"a) Lowland"
157;"Pig and poultry";"e) Mountain zone III";"Livestock, other";"c) Mountain II-IV"
158;"Other cattle";"c) Mountain zone I";"Livestock, cattle";"b) Hilly-Mountain I"
159;"Special crops";"b) Hilly zone";"Plant production";"b) Hilly-Mountain I"
160;"Dairy cattle";"c) Mountain zone I";"Livestock, cattle";"b) Hilly-Mountain I"
161;"Dairy cattle";"b) Hilly zone";"Livestock, cattle";"b) Hilly-Mountain I"
162;"Mix other";"b) Hilly zone";"Mixed";"b) Hilly-Mountain I"
163;"Suckler cattle";"a) Lowland zone";"Livestock, cattle";"a) Lowland"
164;"Other cattle";"e) Mountain zone III";"Livestock, cattle";"c) Mountain II-IV"
165;"Horse/sheep/goat";"e) Mountain zone III";"Livestock, other";"c) Mountain II-IV"
166;"Dairy cattle";"b) Hilly zone";"Livestock, cattle";"b) Hilly-Mountain I"
167;"Horse/sheep/goat";"b) Hilly zone";"Livestock, other";"b) Hilly-Mountain I"
168;"Horse/sheep/goat";"e) Mountain zone III";"Livestock, other";"c) Mountain II-IV"
169;"Other cattle";"d) Mountain zone II";"Livestock, cattle";"c) Mountain II-IV"
170;"Suckler cattle";"e) Mountain zone III";"Livestock, cattle";"c) Mountain II-IV"
171;"Suckler cattle";"f) Mountain zone IV";"Livestock, cattle";"c) Mountain II-IV"
172;"Horse/sheep/goat";"c) Mountain zone I";"Livestock, other";"b) Hilly-Mountain I"
173;"Dairy cattle";"d) Mountain zone II";"Livestock, cattle";"c) Mountain II-IV"
174;"Dairy cattle";"b) Hilly zone";"Livestock, cattle";"b) Hilly-Mountain I"
175;"Suckler cattle";"f) Mountain zone IV";"Livestock, cattle";"c) Mountain II-IV"
176;"Dairy cattle";"d) Mountain zone II";"Livestock, cattle";"c) Mountain II-IV"
177;"Horse/sheep/goat";"f) Mountain zone IV";"Livestock, other";"c) Mountain II-IV"
178;"Dairy cattle";"d) Mountain zone II";"Livestock, cattle";"c) Mountain II-IV"
179;"Dairy cattle";"c) Mountain zone I";"Livestock, cattle";"b) Hilly-Mountain I"
180;"Horse/sheep/goat";"f) Mountain zone IV";"Livestock, other";"c) Mountain II-IV"
181;"Mix other";"a) Lowland zone";"Mixed";"a) Lowland"
182;"Mix other";"c) Mountain zone I";"Mixed";"b) Hilly-Mountain I"
183;"Suckler cattle";"c) Mountain zone I";"Livestock, cattle";"b) Hilly-Mountain I"
184;"Dairy cattle";"c) Mountain zone I";"Livestock, cattle";"b) Hilly-Mountain I"
185;"Mix other";"e) Mountain zone III";"Mixed";"c) Mountain II-IV"
