"Indicator.name";"T1.Corporate.Ethics";"T2.Accountability";"T3.Participation";"T4.Rule.of.Law";"T5.Holistic.Management";"T6.Atmosphere";"T7.Water";"T8.Land";"T9.Biodiversity";"T10.Materials.and.Energy";"T11.Animal.Welfare";"T12.Investment";"T13.Vulnerability";"T14.Product.Quality.and.Information";"T15.Local.Economy";"T16.Decent.Livelihood";"T17.Fair.Traiding.Practices";"T18.Labour.Rights";"T19.Equity";"T20.Human.Safety.and.Health";"T21.Cultural.Diversity"
"00072_FarmStaffTraining";NA;NA;NA;NA;NA;NA;NA;NA;NA;NA;NA;1.25828339730358;NA;NA;NA;1.69945404068257;NA;NA;NA;NA;NA
"00075_CostsSocialInvolvementOutsideFarm";NA;-0.400462701664465;-0.602932485788656;-0.091805663078211;NA;NA;NA;NA;NA;NA;NA;0.565797810779946;NA;NA;NA;-0.283572046132879;NA;NA;NA;NA;-0.364272172025656
"00083_SalesDiversification";NA;NA;NA;NA;NA;NA;NA;NA;NA;NA;NA;NA;0.233950982953262;NA;NA;NA;NA;NA;NA;NA;NA
"00125_SustainabilityTraining";NA;NA;NA;NA;0.546979709943289;NA;NA;NA;NA;NA;NA;0.919360724780035;NA;NA;NA;0.82807911976466;NA;NA;NA;NA;NA
"00128_1_YieldLevel";NA;NA;NA;NA;NA;NA;NA;NA;NA;NA;NA;-0.594470440678433;-1.00997888086067;NA;NA;NA;NA;NA;NA;NA;NA
"00141_DirectSales";NA;NA;NA;NA;NA;NA;NA;NA;NA;-0.447721525978294;NA;NA;-0.285644953672273;-0.429172392473485;NA;NA;NA;NA;NA;NA;NA
"00145_OnFarmProcessing";NA;NA;NA;NA;NA;NA;NA;NA;NA;NA;NA;-0.653073323873141;NA;NA;-0.472265464256413;NA;NA;NA;NA;NA;NA
"00158_DiversificationIncome";NA;NA;NA;NA;NA;NA;NA;NA;NA;NA;NA;-0.0880035547832284;1.87504297768449;NA;NA;NA;NA;NA;NA;NA;NA
"00161_ProducerPriceVsMarketPriceLevel";NA;NA;NA;NA;NA;NA;NA;NA;NA;NA;NA;-0.597724401373189;NA;NA;NA;NA;NA;NA;NA;NA;NA
"00170_FoodSafetyStandards";-0.479867942350865;0.143048181285864;NA;-0.19528411551174;NA;NA;NA;NA;NA;NA;NA;NA;0.0627669097004729;1.49664491656273;NA;NA;NA;NA;NA;-0.0669501267485199;NA
"00208_WoodlandsShareAgriculturalLand_Calculated";NA;NA;NA;NA;NA;0.14539114607356;-0.582276275478367;0.0139846880449042;0.512415608398887;NA;NA;-0.337331665124252;-0.534522166830969;NA;NA;NA;NA;NA;NA;-0.550339984227156;NA
"00227_AlpinePasturageShepherding";NA;NA;NA;NA;NA;NA;NA;NA;0.570591715432214;NA;-0.357084656678227;NA;NA;0.00168046543113443;NA;NA;NA;NA;NA;NA;NA
"00246_RareLivestockBreeds";NA;NA;NA;NA;NA;NA;NA;NA;-0.299020936206893;NA;NA;-0.626433964750905;NA;NA;NA;NA;NA;NA;NA;NA;-0.420719209127269
"00295_AntibioticsLivestockFertilizer";0.740575136868595;NA;NA;NA;NA;NA;1.01127825174957;0.662411434238279;0.686903988223911;NA;NA;NA;NA;1.54783945584594;NA;NA;NA;NA;NA;0.769595567266161;NA
"00308_FarmyardManure";NA;NA;NA;NA;NA;-0.0673875601722433;NA;-0.701441179855458;-0.69496524071053;-0.493549556584753;NA;-0.780650207495386;NA;NA;NA;NA;NA;NA;NA;NA;NA
"00332_ElectricityConsumption";NA;NA;NA;NA;NA;0.020738069967228;NA;NA;NA;-0.216806436509;NA;NA;NA;NA;NA;NA;NA;NA;NA;NA;NA
"00356_ShareDehornedRuminants";NA;NA;NA;NA;NA;NA;NA;NA;NA;NA;0.484933675851412;NA;NA;NA;NA;NA;NA;NA;NA;NA;NA
"00370_5_DailyOutdoorAccess";NA;NA;NA;NA;NA;0.298328909422532;NA;NA;NA;NA;0.45975832618997;NA;NA;0.202988342867301;NA;NA;NA;NA;NA;NA;NA
"00380_NutrientsPollutantsSourcesOnFarm";NA;NA;NA;NA;NA;0.335732073190503;0.16360294941884;-0.950738686787887;NA;NA;NA;NA;-0.641972025417576;NA;NA;NA;NA;NA;NA;-0.327180539828789;NA
"00456_5_PartnerProtectionDivorceDeath";NA;NA;NA;NA;NA;NA;NA;NA;NA;NA;NA;NA;1.01889027917065;NA;NA;0.254514730767318;NA;-0.0908722563451085;0.50186746205541;NA;NA
"00474_AbsenceOccupationalInjuries";NA;NA;NA;NA;NA;NA;NA;NA;NA;NA;NA;NA;0.119303614756884;NA;NA;0.59505668071544;NA;NA;NA;0.335532738451549;NA
"00613_LivestockHealthHormonalTreatment";NA;NA;NA;NA;NA;NA;0.065037839320665;NA;NA;NA;-0.140214693428653;NA;NA;0.228547539372494;NA;NA;NA;NA;NA;NA;NA
"00620_PermanentGrasslandMowingFrequency";NA;NA;NA;NA;NA;-0.292100268811485;NA;NA;-0.0104321328265179;-1.00432709698701;NA;-0.83934226360309;-1.18374289148716;NA;NA;NA;NA;NA;NA;NA;NA
"00629_MechanizationFeedingRoughage";NA;NA;NA;NA;NA;NA;NA;NA;NA;NA;NA;NA;NA;NA;NA;-0.948081108255227;NA;NA;NA;-0.774184435234684;NA
"00631_MechanizationMuckingOut";NA;NA;NA;NA;NA;NA;NA;NA;NA;NA;NA;NA;NA;NA;NA;-0.90961740526104;NA;NA;NA;-0.85420756982944;NA
"00701_LooseHousingSystem";NA;NA;NA;NA;NA;NA;NA;NA;NA;NA;0.270042634377841;NA;NA;NA;NA;NA;NA;NA;NA;NA;NA
"00715_LyingAreaHardness";NA;NA;NA;NA;NA;NA;NA;NA;NA;NA;-0.00713975971871605;NA;NA;NA;NA;NA;NA;NA;NA;NA;NA
"00767_LandOwnership";NA;NA;NA;NA;NA;NA;NA;0.888242414114082;NA;NA;NA;2.05447962027204;1.2446895130011;NA;NA;0.742340221032997;NA;NA;NA;NA;0.640691609545802
"00775_SizeMainBusinessUnit";NA;NA;NA;NA;NA;NA;NA;NA;NA;NA;NA;0.142620749351186;-0.106335991017022;NA;NA;NA;NA;NA;NA;NA;NA
"00793_LocalProcurementProducerLevel_Calculated";NA;NA;NA;NA;NA;NA;NA;NA;NA;NA;NA;-0.0263147980985208;-0.248342358832945;NA;1.07279530217234;NA;NA;NA;NA;NA;NA
